Roll number,Full Name,Program,Major,Minor,Graduation Year,Personal Email,Official Email,Campus Email,Alternate Email,Landline,Alternate Landline,Mobile,Alternate Mobile,Current Address,Current City,Current State,Current Country,Permanent Address,Permanent City,Permanent State,Permanent Country,Business Address,Business City,Business State,Business Country,Current  Company,Current Designation,Current  Department,Current  Industry
2017010089,Kamran Pervaiz,MBA,MBA,,2018,khizerchaudhary1@gmail.com,,,,,,92 323 4444018,,"GOR -II, Bahwalpur House, Lahore, Pakistan",Lahore,,Pakistan,,,,,,,,,Pakistan Administrative Service,Additional Director General(Urban Planning),Lahore Development Authority,
2017010088,Muhammad Ali Raza Shaheen,MBA,,,2017,malishaheen@yahoo.com,,17010088@lums.edu.pk,,92 51 5150106,,92 3335616666,,"House No.7,Lane No.7,Gulistan Colony, Rawalpindi, Pakistan",Rawalpindi,Punjab,Pakistan,,,,,,,,,Pakistan Aeronautical Complex,Assistant Director,Project Management,Aviation
2017010087,Abdul Raffay Sarwar,MBA,,,2017,raffay_sarwar@hotmail.com,,17010087@lums.edu.pk,,92 42 35695316,,92 3217502826,,"# 246 Eden Avenue, New Airport Road, Cantt, Lahore, Pakistan",Lahore,Punjab,Pakistan,,,,,,,,,Gerry's dnata,Summer Intern,Cargo Operations,
2017010084,Akhund Abdurraffay Joudat,MBA,,,2017,joudat_akhund@hotmail.com,,17010084@lums.edu.pk,,92 61 4576851,,92 3336922828,,"House no. 80 block 1 Sector B2 Township, Lahore, Pakistan",Lahore,Punjab,Pakistan,"House no. 2609 Teachers colony Multan, Multan, Pakistan",Multan,Punjab,Pakistan,,,,,Jazz (previously known as Mobilink),Summer Associate,Channel Planning - Business Services Division,